module rest-app

go 1.13

require (
	github.com/dgrijalva/jwt-go v3.2.0+incompatible
	github.com/gin-gonic/gin v1.7.7
	github.com/go-playground/validator/v10 v10.10.0 // indirect
	github.com/golang/protobuf v1.5.2 // indirect
	github.com/joho/godotenv v1.4.0
	github.com/json-iterator/go v1.1.12 // indirect
	github.com/mashingan/smapping v0.1.13
	github.com/mattn/go-isatty v0.0.14 // indirect
	github.com/modern-go/concurrent v0.0.0-20180306012644-bacd9c7ef1dd // indirect
	github.com/ugorji/go v1.2.7 // indirect
	golang.org/x/crypto v0.0.0-20220214200702-86341886e292
	golang.org/x/sys v0.0.0-20220224120231-95c6836cb0e7 // indirect
	google.golang.org/protobuf v1.27.1 // indirect
	gopkg.in/yaml.v2 v2.4.0 // indirect
	gorm.io/driver/postgres v1.3.1
	gorm.io/gorm v1.23.2
)
